Assignment1-Lin-Twitter Data Wrangling and Visualization
…
df1_na$year <- as.character(df1_na$year)
table1 <- df1 %>% separate(year, into = c("Century","year"), sep = 2)
table1

# A tibble: 280 x 5
   Type               Model Century year   Costs
   <chr>              <chr> <chr>   <chr>  <dbl>
 1 Very Heavy Bombers B-29  19      41        NA
 2 Very Heavy Bombers B-29  19      42    897730
 3 Very Heavy Bombers B-29  19      43        NA
 4 Very Heavy Bombers B-29  19      44    605360
 5 Very Heavy Bombers B-29  19      45    509465
 6 Heavy Bombers      B-17  19      41    301221
 7 Heavy Bombers      B-17  19      42    258949
 8 Heavy Bombers      B-17  19      43        NA
 9 Heavy Bombers      B-17  19      44    204370
10 Heavy Bombers      B-17  19      45    187742
# ... with 270 more rows

table2 <-table1 %>% unite(year, Century, year, sep = "") 
table2

# A tibble: 280 x 4
   Type               Model year   Costs
   <chr>              <chr> <chr>  <dbl>
 1 Very Heavy Bombers B-29  1941      NA
 2 Very Heavy Bombers B-29  1942  897730
 3 Very Heavy Bombers B-29  1943      NA
 4 Very Heavy Bombers B-29  1944  605360
 5 Very Heavy Bombers B-29  1945  509465
 6 Heavy Bombers      B-17  1941  301221
 7 Heavy Bombers      B-17  1942  258949
 8 Heavy Bombers      B-17  1943      NA
 9 Heavy Bombers      B-17  1944  204370
10 Heavy Bombers      B-17  1945  187742
# ... with 270 more rows

df1 %>% left_join(df1_na) 

# A tibble: 280 x 4
   Type               Model year   Costs
   <chr>              <chr> <chr>  <dbl>
 1 Very Heavy Bombers B-29  1941      NA
 2 Very Heavy Bombers B-29  1942  897730
 3 Very Heavy Bombers B-29  1943      NA
 4 Very Heavy Bombers B-29  1944  605360
 5 Very Heavy Bombers B-29  1945  509465
 6 Heavy Bombers      B-17  1941  301221
 7 Heavy Bombers      B-17  1942  258949
 8 Heavy Bombers      B-17  1943      NA
 9 Heavy Bombers      B-17  1944  204370
10 Heavy Bombers      B-17  1945  187742
# ... with 270 more rows

str(df1)

tibble [280 x 4] (S3: tbl_df/tbl/data.frame)
 $ Type : chr [1:280] "Very Heavy Bombers" "Very Heavy Bombers" "Very Heavy Bombers" "Very Heavy Bombers" ...
 $ Model: chr [1:280] "B-29" "B-29" "B-29" "B-29" ...
 $ year : chr [1:280] "1941" "1942" "1943" "1944" ...
 $ Costs: num [1:280] NA 897730 NA 605360 509465 ...

df1[is.na(df1)] = 0
df1

# A tibble: 280 x 4
   Type               Model year   Costs
   <chr>              <chr> <chr>  <dbl>
 1 Very Heavy Bombers B-29  1941       0
 2 Very Heavy Bombers B-29  1942  897730
 3 Very Heavy Bombers B-29  1943       0
 4 Very Heavy Bombers B-29  1944  605360
 5 Very Heavy Bombers B-29  1945  509465
 6 Heavy Bombers      B-17  1941  301221
 7 Heavy Bombers      B-17  1942  258949
 8 Heavy Bombers      B-17  1943       0
 9 Heavy Bombers      B-17  1944  204370
10 Heavy Bombers      B-17  1945  187742
# ... with 270 more rows

median(df1$Costs)

[1] 9013.5

mean(df1$Costs)

[1] 83536.91

table3 <- df1 %>% filter(df1$Costs >= mean(df1$Costs)) 
table3 

# A tibble: 78 x 4
   Type               Model year   Costs
   <chr>              <chr> <chr>  <dbl>
 1 Very Heavy Bombers B-29  1942  897730
 2 Very Heavy Bombers B-29  1944  605360
 3 Very Heavy Bombers B-29  1945  509465
 4 Heavy Bombers      B-17  1941  301221
 5 Heavy Bombers      B-17  1942  258949
 6 Heavy Bombers      B-17  1944  204370
 7 Heavy Bombers      B-17  1945  187742
 8 Heavy Bombers      B-24  1941  379162
 9 Heavy Bombers      B-24  1942  304391
10 Heavy Bombers      B-24  1944  215516
# ... with 68 more rows

finaldf <-df1 %>% mutate(costs_above_average=ifelse(df1$Costs >= mean(df1$Costs), TRUE , FALSE)) 
finaldf

# A tibble: 280 x 5
   Type               Model year   Costs costs_above_average
   <chr>              <chr> <chr>  <dbl> <lgl>              
 1 Very Heavy Bombers B-29  1941       0 FALSE              
 2 Very Heavy Bombers B-29  1942  897730 TRUE               
 3 Very Heavy Bombers B-29  1943       0 FALSE              
 4 Very Heavy Bombers B-29  1944  605360 TRUE               
 5 Very Heavy Bombers B-29  1945  509465 TRUE               
 6 Heavy Bombers      B-17  1941  301221 TRUE               
 7 Heavy Bombers      B-17  1942  258949 TRUE               
 8 Heavy Bombers      B-17  1943       0 FALSE              
 9 Heavy Bombers      B-17  1944  204370 TRUE               
10 Heavy Bombers      B-17  1945  187742 TRUE               
# ... with 270 more rows

finaldf <- finaldf %>% mutate(Costs_without_null = replace(df1$Costs,df1$Costs == 0, mean(df1$Costs)))
finaldf

# A tibble: 280 x 6
   Type               Model year   Costs costs_above_average Costs_without_null
   <chr>              <chr> <chr>  <dbl> <lgl>                            <dbl>
 1 Very Heavy Bombers B-29  1941       0 FALSE                           83537.
 2 Very Heavy Bombers B-29  1942  897730 TRUE                           897730 
 3 Very Heavy Bombers B-29  1943       0 FALSE                           83537.
 4 Very Heavy Bombers B-29  1944  605360 TRUE                           605360 
 5 Very Heavy Bombers B-29  1945  509465 TRUE                           509465 
 6 Heavy Bombers      B-17  1941  301221 TRUE                           301221 
 7 Heavy Bombers      B-17  1942  258949 TRUE                           258949 
 8 Heavy Bombers      B-17  1943       0 FALSE                           83537.
 9 Heavy Bombers      B-17  1944  204370 TRUE                           204370 
10 Heavy Bombers      B-17  1945  187742 TRUE                           187742 
# ... with 270 more rows
…
